{
  "images": [
    {
      "build_script": "build.sh",
      "name": "dummy-test",
      "latest_dir_sha": "",
      "latest_release": ""
    },
    {
      "build_script": "build.sh",
      "name": "boostrap-example",
      "latest_dir_sha": "",
      "latest_release": ""
    }
  ]
}
